<?xml version="1.0" encoding="UTF-8"?>
<svg width="60px" height="60px" viewBox="0 0 60 60" version="1.1" xmlns="http://www.w3.org/2000/svg" xmlns:xlink="http://www.w3.org/1999/xlink">
    <!-- Generator: Sketch 52.2 (67145) - http://www.bohemiancoding.com/sketch -->
    <title>embarrassed</title>
    <desc>Created with Sketch.</desc>
    <g id="Desktop" stroke="none" stroke-width="1" fill="none" fill-rule="evenodd">
        <g id="Desktop-HD-(screen1)" transform="translate(-970.000000, -835.000000)" fill="#FFFFFF">
            <g id="embarrassed" transform="translate(970.000000, 835.000000)">
                <path d="M30,0 C13.4580469,0 0,13.4578125 0,30 C0,46.5421875 13.4580469,60 30,60 C46.5419531,60 60,46.5421875 60,30 C60,13.4578125 46.5419531,0 30,0 Z M30,55.6098047 C15.8787891,55.6098047 4.39019531,44.1212109 4.39019531,30 C4.39019531,15.8787891 15.8787891,4.39019531 30,4.39019531 C44.1212109,4.39019531 55.6098047,15.8787891 55.6098047,30 C55.6098047,44.1212109 44.1212109,55.6098047 30,55.6098047 Z" id="Shape" fill-rule="nonzero"></path>
                <path d="M21.2194922,17.5610156 C17.5883203,17.5610156 14.6341406,20.5151953 14.6341406,24.1463672 L19.0243359,24.1463672 C19.0243359,22.9359375 20.0090625,21.9512109 21.2194922,21.9512109 C22.4299219,21.9512109 23.4146484,22.9359375 23.4146484,24.1463672 L27.8048437,24.1463672 C27.8048437,20.5151953 24.8506641,17.5610156 21.2194922,17.5610156 Z" id="Path"></path>
                <path d="M38.7805078,17.5610156 C35.1492188,17.5610156 32.1951563,20.5151953 32.1951563,24.1463672 L36.5853516,24.1463672 C36.5853516,22.9359375 37.5699609,21.9512109 38.7805078,21.9512109 C39.9910547,21.9512109 40.9756641,22.9359375 40.9756641,24.1463672 L45.3658594,24.1463672 C45.3658594,20.5151953 42.4117969,17.5610156 38.7805078,17.5610156 Z" id="Path"></path>
                <path d="M39.7565625,37.8302344 C37.7655469,41.6891016 34.2094922,43.9024219 30,43.9024219 C25.7903906,43.9024219 22.2343359,41.6891016 20.2434375,37.8302344 L16.3419141,39.8431641 C19.0713281,45.1338281 24.1771875,48.2926172 30,48.2926172 C35.8224609,48.2926172 40.9284375,45.1339453 43.6580859,39.8431641 L39.7565625,37.8302344 Z" id="Path"></path>
            </g>
        </g>
    </g>
</svg>