<?xml version="1.0" encoding="UTF-8"?>
<svg width="30px" height="20px" viewBox="0 0 30 20" version="1.1" xmlns="http://www.w3.org/2000/svg" xmlns:xlink="http://www.w3.org/1999/xlink">
    <!-- Generator: Sketch 52.2 (67145) - http://www.bohemiancoding.com/sketch -->
    <title>Group 7</title>
    <desc>Created with Sketch.</desc>
    <g id="Desktop" stroke="none" stroke-width="1" fill="none" fill-rule="evenodd">
        <g id="Desktop-HD-(screen1-dislike-message)" transform="translate(-1160.000000, -32.000000)" fill="#FFFFFF">
            <g id="Group-7" transform="translate(1160.000000, 32.000000)">
                <rect id="Rectangle-Copy-10" x="0" y="8.42105263" width="30" height="3.15789474" rx="1.57894737"></rect>
                <rect id="Rectangle-Copy-10" x="0" y="0" width="30" height="3.15789474" rx="1.57894737"></rect>
                <rect id="Rectangle-Copy-10" x="0" y="16.8421053" width="30" height="3.15789474" rx="1.57894737"></rect>
            </g>
        </g>
    </g>
</svg>